{
  "Artist": "Vivaldi",
  "Title": "Spring Intro",
  "Album": "Four Seasons",
  "Tempo" :120,
  "Notes": [
    "(1/16:E4)(1/16:M0)|",
    "{2:{2:(1/16:G#4)(1/16:M0)(1/16:G#4)(1/16:M0)(1/16:G#4)(1/16:M0)(1/16:F#4)(1/16:E4)(3/8:B4)(1/16:B4)(1/16:A4)|}",
    "(1/16:G#4)(1/16:M0)(1/16:A4)(1/16:B4)(1/16:A4)(1/16:M0)(1/16:G#4)(1/16:M0)(1/16:F#4)(1/16:M0)(1/4:D#4)(1/16:E4)(1/16:M0)|}",
    "{2:(1/8:B4)(1/16:A4)(1/16:G#4)(1/8:A4)(1/8:B4)(1/8:C#5)(1/4:B4)(1/8:E4)|}",
    "(1/8:C#5)(1/4:B4)(1/8:A4)(1/8:G#4)(1/16:F#4)(1/16:E4)(1/4:F#4)|(1/2:E4)" ]
}